EESchema Schematic File Version 4
EELAYER 30 0
EELAYER END
$Descr A4 11693 8268
encoding utf-8
Sheet 1 6
Title "SmartRelay Hat for SH_ESP32"
Date "2021-11-06"
Rev "0.0.1"
Comp "BoatNet"
Comment1 "https://creativecommons.org/licenses/by-sa/4.0"
Comment2 "To view a copy of this license, visit "
Comment3 "Sailor Hat for ESP32 is licensed under CC BY-SA 4.0."
Comment4 ""
$EndDescr
Text Notes 7700 5150 0    50   ~ 10
5A  Screw Terminal
$Sheet
S 9600 5600 1300 750 
U 5FC0C355
F0 "PCB" 50
F1 "PCB.sch" 50
$EndSheet
$Sheet
S 7950 900  650  900 
U 5FF2C8F9
F0 "FET01" 50
F1 "FET.sch" 50
F2 "FETDRIVE" I R 8600 950 50 
F3 "DRVPWR" I R 8600 1100 50 
F4 "DRVOUT" I R 8600 1200 50 
F5 "SDA" I R 8600 1350 50 
F6 "ALERT" I R 8600 1750 50 
F7 "SCL" I R 8600 1450 50 
F8 "A0" I L 7950 1100 50 
F9 "A1" I L 7950 1600 50 
$EndSheet
Text Label 8700 950  0    50   ~ 0
IO12
Wire Wire Line
	8600 950  8700 950 
Text Label 8700 1450 0    50   ~ 0
SCL
Text Label 8700 1350 0    50   ~ 0
SDA
Wire Wire Line
	8600 1350 8700 1350
Wire Wire Line
	8600 1450 8700 1450
Text Label 8700 1200 0    50   ~ 0
DRVOUT_01
Wire Wire Line
	8600 1200 8700 1200
$Sheet
S 7950 2300 650  900 
U 5FF60FC9
F0 "FET02" 50
F1 "FET.sch" 50
F2 "FETDRIVE" I R 8600 2350 50 
F3 "DRVPWR" I R 8600 2500 50 
F4 "DRVOUT" I R 8600 2600 50 
F5 "SDA" I R 8600 2750 50 
F6 "ALERT" I R 8600 3150 50 
F7 "SCL" I R 8600 2850 50 
F8 "A0" I L 7950 2500 50 
F9 "A1" I L 7950 3050 50 
$EndSheet
Text Label 8700 2350 0    50   ~ 0
IO14
Wire Wire Line
	8600 2350 8700 2350
Text Label 8700 2850 0    50   ~ 0
SCL
Text Label 8700 2750 0    50   ~ 0
SDA
Wire Wire Line
	8600 2750 8700 2750
Wire Wire Line
	8600 2850 8700 2850
Text Label 8700 2600 0    50   ~ 0
DRVOUT_02
Wire Wire Line
	8600 2600 8700 2600
$Sheet
S 9650 2300 650  900 
U 5FF7EC77
F0 "FET03" 50
F1 "FET.sch" 50
F2 "FETDRIVE" I R 10300 2350 50 
F3 "DRVPWR" I R 10300 2500 50 
F4 "DRVOUT" I R 10300 2600 50 
F5 "SDA" I R 10300 2750 50 
F6 "ALERT" I R 10300 3150 50 
F7 "SCL" I R 10300 2850 50 
F8 "A0" I L 9650 2500 50 
F9 "A1" I L 9650 3000 50 
$EndSheet
Text Label 10400 2350 0    50   ~ 0
IO13
Wire Wire Line
	10300 2350 10400 2350
Text Label 10400 2850 0    50   ~ 0
SCL
Text Label 10400 2750 0    50   ~ 0
SDA
Wire Wire Line
	10300 2750 10400 2750
Wire Wire Line
	10300 2850 10400 2850
Text Label 10400 2600 0    50   ~ 0
DRVOUT_03
Wire Wire Line
	10300 2600 10400 2600
$Sheet
S 9650 900  650  900 
U 5FF7EC89
F0 "FET04" 50
F1 "FET.sch" 50
F2 "FETDRIVE" I R 10300 950 50 
F3 "DRVPWR" I R 10300 1100 50 
F4 "DRVOUT" I R 10300 1200 50 
F5 "SDA" I R 10300 1350 50 
F6 "ALERT" I R 10300 1750 50 
F7 "SCL" I R 10300 1450 50 
F8 "A0" I L 9650 1100 50 
F9 "A1" I L 9650 1600 50 
$EndSheet
Text Label 10400 950  0    50   ~ 0
IO15
Wire Wire Line
	10300 950  10400 950 
Text Label 10400 1450 0    50   ~ 0
SCL
Text Label 10400 1350 0    50   ~ 0
SDA
Wire Wire Line
	10300 1350 10400 1350
Wire Wire Line
	10300 1450 10400 1450
Text Label 10400 1200 0    50   ~ 0
DRVOUT_04
Wire Wire Line
	10300 1200 10400 1200
$Comp
L power:GND #PWR?
U 1 1 6044C943
P 7800 1100
AR Path="/5FD03D85/6044C943" Ref="#PWR?"  Part="1" 
AR Path="/6044C943" Ref="#PWR0101"  Part="1" 
F 0 "#PWR0101" H 7800 850 50  0001 C CNN
F 1 "GND" H 7805 927 50  0000 C CNN
F 2 "" H 7800 1100 50  0001 C CNN
F 3 "" H 7800 1100 50  0001 C CNN
	1    7800 1100
	1    0    0    -1  
$EndComp
$Comp
L power:+3.3V #PWR0104
U 1 1 6045811B
P 7800 3050
AR Path="/6045811B" Ref="#PWR0104"  Part="1" 
AR Path="/5FC3847D/6045811B" Ref="#PWR?"  Part="1" 
AR Path="/5FBE301B/6045811B" Ref="#PWR?"  Part="1" 
F 0 "#PWR0104" H 7800 2900 50  0001 C CNN
F 1 "+3.3V" H 7815 3223 50  0000 C CNN
F 2 "" H 7800 3050 50  0001 C CNN
F 3 "" H 7800 3050 50  0001 C CNN
	1    7800 3050
	1    0    0    -1  
$EndComp
Wire Wire Line
	7950 1100 7800 1100
Wire Wire Line
	9500 1100 9650 1100
Wire Wire Line
	1950 2750 1300 2750
$Comp
L power:GND #PWR0107
U 1 1 5FBDFE86
P 2975 1700
AR Path="/5FBDFE86" Ref="#PWR0107"  Part="1" 
AR Path="/5FC3847D/5FBDFE86" Ref="#PWR0115"  Part="1" 
AR Path="/5FBE301B/5FBDFE86" Ref="#PWR0104"  Part="1" 
AR Path="/61821D39/5FBDFE86" Ref="#PWR0107"  Part="1" 
F 0 "#PWR0107" H 2975 1450 50  0001 C CNN
F 1 "GND" H 2975 1575 50  0000 C CNN
F 2 "" H 2975 1700 50  0001 C CNN
F 3 "" H 2975 1700 50  0001 C CNN
	1    2975 1700
	1    0    0    -1  
$EndComp
Wire Wire Line
	2450 1850 2850 1850
Wire Wire Line
	2850 1850 2850 1700
Wire Wire Line
	2850 1700 2975 1700
$Comp
L power:GND #PWR0108
U 1 1 5FBDFE87
P 1800 1425
AR Path="/5FBDFE87" Ref="#PWR0108"  Part="1" 
AR Path="/5FC3847D/5FBDFE87" Ref="#PWR0116"  Part="1" 
AR Path="/5FBE301B/5FBDFE87" Ref="#PWR0105"  Part="1" 
AR Path="/61821D39/5FBDFE87" Ref="#PWR0108"  Part="1" 
F 0 "#PWR0108" H 1800 1175 50  0001 C CNN
F 1 "GND" H 1675 1400 50  0000 C CNN
F 2 "" H 1800 1425 50  0001 C CNN
F 3 "" H 1800 1425 50  0001 C CNN
	1    1800 1425
	1    0    0    -1  
$EndComp
Wire Wire Line
	1900 1450 1950 1450
Wire Wire Line
	1900 1400 1800 1400
Wire Wire Line
	1800 1400 1800 1425
Wire Wire Line
	1900 1400 1900 1450
$Comp
L power:GND #PWR0109
U 1 1 617BCD5D
P 1800 1425
AR Path="/617BCD5D" Ref="#PWR0109"  Part="1" 
AR Path="/5FC3847D/617BCD5D" Ref="#PWR0118"  Part="1" 
AR Path="/5FBE301B/617BCD5D" Ref="#PWR0106"  Part="1" 
AR Path="/61821D39/617BCD5D" Ref="#PWR0109"  Part="1" 
F 0 "#PWR0109" H 1800 1175 50  0001 C CNN
F 1 "GND" H 1675 1400 50  0000 C CNN
F 2 "" H 1800 1425 50  0001 C CNN
F 3 "" H 1800 1425 50  0001 C CNN
	1    1800 1425
	1    0    0    -1  
$EndComp
Text Notes 3175 1675 0    50   ~ 0
UART0
Text Notes 3100 2450 0    50   ~ 0
I2C/LCD
Text Notes 750  1875 0    50   ~ 0
JTAG
$Comp
L power:GND #PWR0110
U 1 1 617BCD5C
P 2975 1700
AR Path="/617BCD5C" Ref="#PWR0110"  Part="1" 
AR Path="/5FC3847D/617BCD5C" Ref="#PWR0119"  Part="1" 
AR Path="/5FBE301B/617BCD5C" Ref="#PWR0107"  Part="1" 
AR Path="/61821D39/617BCD5C" Ref="#PWR0110"  Part="1" 
F 0 "#PWR0110" H 2975 1450 50  0001 C CNN
F 1 "GND" H 2975 1575 50  0000 C CNN
F 2 "" H 2975 1700 50  0001 C CNN
F 3 "" H 2975 1700 50  0001 C CNN
	1    2975 1700
	1    0    0    -1  
$EndComp
Wire Wire Line
	1300 2650 1950 2650
Wire Wire Line
	1600 2350 1950 2350
Wire Wire Line
	1600 2150 1600 2350
Wire Wire Line
	1450 2150 1600 2150
Connection ~ 2850 1350
Wire Wire Line
	2850 1350 3000 1350
Wire Wire Line
	2850 1550 2850 1350
$Comp
L power:GND #PWR0111
U 1 1 617BCD5B
P 3025 2900
AR Path="/617BCD5B" Ref="#PWR0111"  Part="1" 
AR Path="/5FC3847D/617BCD5B" Ref="#PWR0114"  Part="1" 
AR Path="/5FBE301B/617BCD5B" Ref="#PWR0108"  Part="1" 
AR Path="/61821D39/617BCD5B" Ref="#PWR0111"  Part="1" 
F 0 "#PWR0111" H 3025 2650 50  0001 C CNN
F 1 "GND" H 3030 2727 50  0000 C CNN
F 2 "" H 3025 2900 50  0001 C CNN
F 3 "" H 3025 2900 50  0001 C CNN
	1    3025 2900
	1    0    0    -1  
$EndComp
Connection ~ 1300 2850
Wire Wire Line
	1300 2850 1300 2900
Wire Wire Line
	3025 2850 3025 2900
Connection ~ 3025 2850
Wire Wire Line
	2450 2850 3025 2850
Wire Wire Line
	3025 2750 3025 2850
Wire Wire Line
	2450 2750 3025 2750
Wire Wire Line
	2450 2650 3025 2650
$Comp
L power:+3.3V #PWR0112
U 1 1 617BCD5A
P 3025 2650
AR Path="/617BCD5A" Ref="#PWR0112"  Part="1" 
AR Path="/5FC3847D/617BCD5A" Ref="#PWR0113"  Part="1" 
AR Path="/5FBE301B/617BCD5A" Ref="#PWR0109"  Part="1" 
AR Path="/61821D39/617BCD5A" Ref="#PWR0112"  Part="1" 
F 0 "#PWR0112" H 3025 2500 50  0001 C CNN
F 1 "+3.3V" H 3050 2800 50  0000 C CNN
F 2 "" H 3025 2650 50  0001 C CNN
F 3 "" H 3025 2650 50  0001 C CNN
	1    3025 2650
	1    0    0    -1  
$EndComp
Wire Wire Line
	1950 2850 1300 2850
Wire Wire Line
	1300 2750 1300 2850
$Comp
L power:+3.3V #PWR0113
U 1 1 617BCD59
P 1300 2650
AR Path="/617BCD59" Ref="#PWR0113"  Part="1" 
AR Path="/5FC3847D/617BCD59" Ref="#PWR0112"  Part="1" 
AR Path="/5FBE301B/617BCD59" Ref="#PWR0110"  Part="1" 
AR Path="/61821D39/617BCD59" Ref="#PWR0113"  Part="1" 
F 0 "#PWR0113" H 1300 2500 50  0001 C CNN
F 1 "+3.3V" H 1275 2800 50  0000 C CNN
F 2 "" H 1300 2650 50  0001 C CNN
F 3 "" H 1300 2650 50  0001 C CNN
	1    1300 2650
	1    0    0    -1  
$EndComp
$Comp
L power:GND #PWR0114
U 1 1 617BCD58
P 1300 2900
AR Path="/617BCD58" Ref="#PWR0114"  Part="1" 
AR Path="/5FC3847D/617BCD58" Ref="#PWR0111"  Part="1" 
AR Path="/5FBE301B/617BCD58" Ref="#PWR0111"  Part="1" 
AR Path="/61821D39/617BCD58" Ref="#PWR0114"  Part="1" 
F 0 "#PWR0114" H 1300 2650 50  0001 C CNN
F 1 "GND" H 1305 2727 50  0000 C CNN
F 2 "" H 1300 2900 50  0001 C CNN
F 3 "" H 1300 2900 50  0001 C CNN
	1    1300 2900
	1    0    0    -1  
$EndComp
$Comp
L power:GND #PWR0115
U 1 1 617BCD57
P 1450 2150
AR Path="/617BCD57" Ref="#PWR0115"  Part="1" 
AR Path="/5FC3847D/617BCD57" Ref="#PWR0110"  Part="1" 
AR Path="/5FBE301B/617BCD57" Ref="#PWR0112"  Part="1" 
AR Path="/61821D39/617BCD57" Ref="#PWR0115"  Part="1" 
F 0 "#PWR0115" H 1450 1900 50  0001 C CNN
F 1 "GND" H 1455 1977 50  0000 C CNN
F 2 "" H 1450 2150 50  0001 C CNN
F 3 "" H 1450 2150 50  0001 C CNN
	1    1450 2150
	1    0    0    -1  
$EndComp
$Comp
L power:+3.3V #PWR0116
U 1 1 617BCD56
P 1000 1500
AR Path="/617BCD56" Ref="#PWR0116"  Part="1" 
AR Path="/5FC3847D/617BCD56" Ref="#PWR0105"  Part="1" 
AR Path="/5FBE301B/617BCD56" Ref="#PWR0113"  Part="1" 
AR Path="/61821D39/617BCD56" Ref="#PWR0116"  Part="1" 
F 0 "#PWR0116" H 1000 1350 50  0001 C CNN
F 1 "+3.3V" H 1015 1673 50  0000 C CNN
F 2 "" H 1000 1500 50  0001 C CNN
F 3 "" H 1000 1500 50  0001 C CNN
	1    1000 1500
	1    0    0    -1  
$EndComp
Wire Wire Line
	2450 1350 2850 1350
Wire Wire Line
	2450 1550 2850 1550
$Comp
L power:GND #PWR0117
U 1 1 617BCD55
P 3000 1350
AR Path="/617BCD55" Ref="#PWR0117"  Part="1" 
AR Path="/5FC3847D/617BCD55" Ref="#PWR0104"  Part="1" 
AR Path="/5FBE301B/617BCD55" Ref="#PWR0114"  Part="1" 
AR Path="/61821D39/617BCD55" Ref="#PWR0117"  Part="1" 
F 0 "#PWR0117" H 3000 1100 50  0001 C CNN
F 1 "GND" H 3005 1177 50  0000 C CNN
F 2 "" H 3000 1350 50  0001 C CNN
F 3 "" H 3000 1350 50  0001 C CNN
	1    3000 1350
	1    0    0    -1  
$EndComp
Text Label 2450 1450 0    50   ~ 0
IO0
Text Label 2450 2150 0    50   ~ 0
IO33_C
Text Label 2450 2350 0    50   ~ 0
IO35_C
Text Label 2450 2250 0    50   ~ 0
IO32_C
Text Label 1950 2450 2    50   ~ 0
IO34_C
$Comp
L Connector_Generic:Conn_02x20_Odd_Even J302
U 1 1 617BCD4C
P 2150 1850
F 0 "J302" H 2200 3050 50  0000 C CNN
F 1 "GPIO" H 2200 2950 50  0000 C CNN
F 2 "Connector_PinSocket_2.54mm:PinSocket_2x20_P2.54mm_Vertical" H 2150 1850 50  0001 C CNN
F 3 "~" H 2150 1850 50  0001 C CNN
F 4 "C358701" H 2150 1850 50  0001 C CNN "LCSC"
	1    2150 1850
	1    0    0    -1  
$EndComp
Text Label 1950 2250 2    50   ~ 0
IO15
Text Label 2450 1150 0    50   ~ 0
IO5
Text Label 1950 1150 2    50   ~ 0
IO18
Text Label 2450 1050 0    50   ~ 0
IO19
Text Label 1950 1050 2    50   ~ 0
IO21
Text Label 2450 1750 0    50   ~ 0
RXD0_C
Text Label 2450 1650 0    50   ~ 0
TXD0_C
Text Label 2450 950  0    50   ~ 0
IO22
Text Label 1950 950  2    50   ~ 0
IO23
Text Label 1950 2150 2    50   ~ 0
IO13
Text Label 1950 1950 2    50   ~ 0
IO12
Text Label 1950 2050 2    50   ~ 0
IO14
Text Label 1950 1350 2    50   ~ 0
IO27
Text Label 1950 1250 2    50   ~ 0
IO26
Text Label 2450 1250 0    50   ~ 0
IO25
Text Label 1950 1750 2    50   ~ 0
SENSOR_VN
Text Label 1950 1650 2    50   ~ 0
SENSOR_VP
Text Label 2450 2050 0    50   ~ 0
EN
Text Label 2450 2550 0    50   ~ 0
SCL
Text Label 2450 2450 0    50   ~ 0
SDA
Text Label 1950 2550 2    50   ~ 0
IO4_C
Text Label 2450 1950 0    50   ~ 0
IO2
Connection ~ 1800 1425
Connection ~ 2975 1700
Text Notes 775  975  0    50   ~ 0
RMII\nEthernet
Wire Wire Line
	1000 1550 1000 1500
Wire Wire Line
	1000 1550 1950 1550
$Comp
L power:+3.3V #PWR0118
U 1 1 617BCD52
P 1450 2050
AR Path="/617BCD52" Ref="#PWR0118"  Part="1" 
AR Path="/5FC3847D/617BCD52" Ref="#PWR0120"  Part="1" 
AR Path="/5FBE301B/617BCD52" Ref="#PWR0115"  Part="1" 
AR Path="/61821D39/617BCD52" Ref="#PWR0118"  Part="1" 
F 0 "#PWR0118" H 1450 1900 50  0001 C CNN
F 1 "+3.3V" H 1465 2223 50  0000 C CNN
F 2 "" H 1450 2050 50  0001 C CNN
F 3 "" H 1450 2050 50  0001 C CNN
	1    1450 2050
	1    0    0    -1  
$EndComp
Wire Wire Line
	1450 2050 1600 2050
Wire Wire Line
	1600 2050 1600 1850
Wire Wire Line
	1600 1850 1950 1850
Wire Notes Line
	700  1575 3450 1575
Wire Notes Line
	700  1575 700  800 
Wire Notes Line
	700  800  3450 800 
Wire Notes Line
	2200 1775 700  1775
Wire Notes Line
	700  1775 700  2375
Wire Notes Line
	3425 2375 3425 2775
Wire Notes Line
	3425 2775 2200 2775
Wire Notes Line
	2200 1775 2200 2775
Wire Notes Line
	700  2375 3425 2375
Wire Notes Line
	2225 1575 2225 1875
Wire Notes Line
	2225 1875 3450 1875
Wire Notes Line
	3450 800  3450 1875
Text Notes 2700 950  0    50   ~ 0
RMII_TXD1\n
Text Notes 2700 1050 0    50   ~ 0
RMII_TXD0\n
Text Notes 2700 1150 0    50   ~ 0
PHY_RESET_N
Text Notes 2700 1250 0    50   ~ 0
RMII_RXD0
Text Notes 1250 950  0    50   ~ 0
PHY_MDC\n
Text Notes 1250 1050 0    50   ~ 0
RMII_EN
Text Notes 1250 1150 0    50   ~ 0
PHY_MDIO
Text Notes 1250 1250 0    50   ~ 0
RMII_RXD1
Text Notes 1250 1350 0    50   ~ 0
RMI_CRS_DV
$Comp
L Connector_Generic:Conn_01x02 J301
U 1 1 617BCD4E
P 2350 4350
AR Path="/5FC3847D/617BCD4E" Ref="J301"  Part="1" 
AR Path="/5F6FAF6E/617BCD4E" Ref="J302"  Part="1" 
AR Path="/5FBE301B/617BCD4E" Ref="J304"  Part="1" 
AR Path="/61821D39/617BCD4E" Ref="J304"  Part="1" 
AR Path="/617BCD4E" Ref="J3"  Part="1" 
F 0 "J3" H 2430 4342 50  0000 L CNN
F 1 "Conn_01x02" H 2430 4251 50  0000 L CNN
F 2 "Connector_PinHeader_2.54mm:PinHeader_1x02_P2.54mm_Vertical" H 2350 4350 50  0001 C CNN
F 3 "~" H 2350 4350 50  0001 C CNN
F 4 "C376075" H 2350 4350 50  0001 C CNN "LCSC"
	1    2350 4350
	1    0    0    -1  
$EndComp
$Comp
L power:GND #PWR0101
U 1 1 5FB16571
P 1250 4450
AR Path="/5FC3847D/5FB16571" Ref="#PWR0101"  Part="1" 
AR Path="/5F6FAF6E/5FB16571" Ref="#PWR0107"  Part="1" 
AR Path="/5FBE301B/5FB16571" Ref="#PWR0116"  Part="1" 
AR Path="/61821D39/5FB16571" Ref="#PWR0121"  Part="1" 
AR Path="/5FB16571" Ref="#PWR0121"  Part="1" 
F 0 "#PWR0121" H 1250 4200 50  0001 C CNN
F 1 "GND" H 1255 4277 50  0000 C CNN
F 2 "" H 1250 4450 50  0001 C CNN
F 3 "" H 1250 4450 50  0001 C CNN
	1    1250 4450
	1    0    0    -1  
$EndComp
Wire Wire Line
	1250 4450 2150 4450
$Comp
L power:+12V #PWR0125
U 1 1 618002A9
P 9050 850
F 0 "#PWR0125" H 9050 700 50  0001 C CNN
F 1 "+12V" H 9065 1023 50  0000 C CNN
F 2 "" H 9050 850 50  0001 C CNN
F 3 "" H 9050 850 50  0001 C CNN
	1    9050 850 
	1    0    0    -1  
$EndComp
$Comp
L power:+12V #PWR0126
U 1 1 61800A11
P 10800 900
F 0 "#PWR0126" H 10800 750 50  0001 C CNN
F 1 "+12V" H 10815 1073 50  0000 C CNN
F 2 "" H 10800 900 50  0001 C CNN
F 3 "" H 10800 900 50  0001 C CNN
	1    10800 900 
	1    0    0    -1  
$EndComp
$Comp
L power:+12V #PWR0127
U 1 1 61800F1E
P 9050 2250
F 0 "#PWR0127" H 9050 2100 50  0001 C CNN
F 1 "+12V" H 9065 2423 50  0000 C CNN
F 2 "" H 9050 2250 50  0001 C CNN
F 3 "" H 9050 2250 50  0001 C CNN
	1    9050 2250
	1    0    0    -1  
$EndComp
$Comp
L power:+12V #PWR0128
U 1 1 618015D7
P 10800 2250
F 0 "#PWR0128" H 10800 2100 50  0001 C CNN
F 1 "+12V" H 10815 2423 50  0000 C CNN
F 2 "" H 10800 2250 50  0001 C CNN
F 3 "" H 10800 2250 50  0001 C CNN
	1    10800 2250
	1    0    0    -1  
$EndComp
Wire Wire Line
	9050 2500 9050 2250
Wire Wire Line
	8600 2500 9050 2500
Wire Wire Line
	9050 1100 9050 850 
Wire Wire Line
	8600 1100 9050 1100
Wire Wire Line
	10800 1100 10800 900 
Wire Wire Line
	10800 2500 10800 2250
Wire Wire Line
	10300 2500 10800 2500
$Comp
L BoatNet:FuseSelect F1
U 1 1 6188CE59
P 4050 5650
F 0 "F1" H 4050 5848 50  0000 C CNN
F 1 "FuseSelect" H 4050 5757 50  0000 C CNN
F 2 "BoatNet:Keystone-3522_3" H 4250 5750 50  0001 C CNN
F 3 "" H 4050 5650 50  0001 C CNN
	1    4050 5650
	1    0    0    -1  
$EndComp
$Comp
L power:+12V #PWR0131
U 1 1 6189420C
P 3550 5450
F 0 "#PWR0131" H 3550 5300 50  0001 C CNN
F 1 "+12V" H 3565 5623 50  0000 C CNN
F 2 "" H 3550 5450 50  0001 C CNN
F 3 "" H 3550 5450 50  0001 C CNN
	1    3550 5450
	1    0    0    -1  
$EndComp
Wire Wire Line
	3550 5450 3550 5650
Wire Wire Line
	3550 5650 3700 5650
Wire Wire Line
	4400 5650 4850 5650
Wire Wire Line
	4050 5750 4850 5750
$Comp
L BoatNet:FuseSelect F2
U 1 1 618C246F
P 4050 5900
F 0 "F2" H 4050 6098 50  0000 C CNN
F 1 "FuseSelect" H 4050 6007 50  0000 C CNN
F 2 "BoatNet:Keystone-3522_3" H 4250 6000 50  0001 C CNN
F 3 "" H 4050 5900 50  0001 C CNN
	1    4050 5900
	1    0    0    -1  
$EndComp
$Comp
L BoatNet:FuseSelect F3
U 1 1 618C2D6B
P 4050 6150
F 0 "F3" H 4050 6348 50  0000 C CNN
F 1 "FuseSelect" H 4050 6257 50  0000 C CNN
F 2 "BoatNet:Keystone-3522_3" H 4250 6250 50  0001 C CNN
F 3 "" H 4050 6150 50  0001 C CNN
	1    4050 6150
	1    0    0    -1  
$EndComp
$Comp
L BoatNet:FuseSelect F4
U 1 1 618C35D0
P 4050 6400
F 0 "F4" H 4050 6598 50  0000 C CNN
F 1 "FuseSelect" H 4050 6507 50  0000 C CNN
F 2 "BoatNet:Keystone-3522_3" H 4250 6500 50  0001 C CNN
F 3 "" H 4050 6400 50  0001 C CNN
	1    4050 6400
	1    0    0    -1  
$EndComp
Wire Wire Line
	3550 5650 3550 5900
Wire Wire Line
	3550 5900 3700 5900
Connection ~ 3550 5650
Wire Wire Line
	3550 5900 3550 6150
Wire Wire Line
	3550 6150 3700 6150
Connection ~ 3550 5900
Wire Wire Line
	3550 6150 3550 6400
Wire Wire Line
	3550 6400 3700 6400
Connection ~ 3550 6150
Wire Wire Line
	4400 5900 4850 5900
Wire Wire Line
	4050 6000 4850 6000
Wire Wire Line
	4400 6150 4850 6150
Wire Wire Line
	4050 6250 4850 6250
Wire Wire Line
	4400 6400 4850 6400
Wire Wire Line
	4050 6500 4850 6500
Text Label 4850 5750 0    50   ~ 0
TERMOUT_01
Text Label 4850 6000 0    50   ~ 0
TERMOUT_02
Text Label 4850 6250 0    50   ~ 0
TERMOUT_03
Text Label 4850 6500 0    50   ~ 0
TERMOUT_04
Text Label 4850 5650 0    50   ~ 0
DRVOUT_01
Text Label 4850 5900 0    50   ~ 0
DRVOUT_02
Text Label 4850 6150 0    50   ~ 0
DRVOUT_03
Text Label 4850 6400 0    50   ~ 0
DRVOUT_04
$Comp
L Connector:Screw_Terminal_01x08 J2
U 1 1 61919852
P 8500 5650
F 0 "J2" H 8580 5642 50  0000 L CNN
F 1 "Screw_Terminal_01x08" H 8580 5551 50  0000 L CNN
F 2 "TerminalBlock_Phoenix:TerminalBlock_Phoenix_PT-1,5-8-3.5-H_1x08_P3.50mm_Horizontal" H 8500 5650 50  0001 C CNN
F 3 "~" H 8500 5650 50  0001 C CNN
	1    8500 5650
	1    0    0    -1  
$EndComp
Text Label 7850 5450 0    50   ~ 0
TERMOUT_01
Wire Wire Line
	8300 5450 7850 5450
Wire Wire Line
	7850 5650 8300 5650
Wire Wire Line
	7850 5850 8300 5850
Wire Wire Line
	7850 6050 8300 6050
Text Label 7850 5650 0    50   ~ 0
TERMOUT_02
Text Label 7850 5850 0    50   ~ 0
TERMOUT_03
Text Label 7850 6050 0    50   ~ 0
TERMOUT_04
$Comp
L power:GND #PWR0132
U 1 1 61946774
P 7650 6150
F 0 "#PWR0132" H 7650 5900 50  0001 C CNN
F 1 "GND" H 7655 5977 50  0000 C CNN
F 2 "" H 7650 6150 50  0001 C CNN
F 3 "" H 7650 6150 50  0001 C CNN
	1    7650 6150
	1    0    0    -1  
$EndComp
Wire Wire Line
	8300 5350 7650 5350
Wire Wire Line
	7650 5350 7650 5550
Wire Wire Line
	8300 5550 7650 5550
Connection ~ 7650 5550
Wire Wire Line
	7650 5550 7650 5750
Wire Wire Line
	8300 5750 7650 5750
Connection ~ 7650 5750
Wire Wire Line
	7650 5750 7650 5950
Wire Wire Line
	8300 5950 7650 5950
Connection ~ 7650 5950
Wire Wire Line
	7650 5950 7650 6150
$Comp
L Connector:Screw_Terminal_01x02 J1
U 1 1 61965E52
P 6500 4850
F 0 "J1" H 6580 4842 50  0000 L CNN
F 1 "Screw_Terminal_01x02" H 6580 4751 50  0000 L CNN
F 2 "TerminalBlock_Phoenix:TerminalBlock_Phoenix_PT-1,5-2-5.0-H_1x02_P5.00mm_Horizontal" H 6500 4850 50  0001 C CNN
F 3 "~" H 6500 4850 50  0001 C CNN
	1    6500 4850
	1    0    0    1   
$EndComp
$Comp
L power:+12V #PWR0133
U 1 1 6196BF43
P 6100 4600
F 0 "#PWR0133" H 6100 4450 50  0001 C CNN
F 1 "+12V" H 6115 4773 50  0000 C CNN
F 2 "" H 6100 4600 50  0001 C CNN
F 3 "" H 6100 4600 50  0001 C CNN
	1    6100 4600
	1    0    0    -1  
$EndComp
$Comp
L power:GND #PWR0134
U 1 1 6196D15B
P 6100 5000
F 0 "#PWR0134" H 6100 4750 50  0001 C CNN
F 1 "GND" H 6105 4827 50  0000 C CNN
F 2 "" H 6100 5000 50  0001 C CNN
F 3 "" H 6100 5000 50  0001 C CNN
	1    6100 5000
	1    0    0    -1  
$EndComp
Wire Wire Line
	6100 4600 6100 4750
Wire Wire Line
	6100 4750 6300 4750
Wire Wire Line
	6100 5000 6100 4850
Wire Wire Line
	6100 4850 6300 4850
$Comp
L power:+12V #PWR0102
U 1 1 619974F1
P 1900 4150
F 0 "#PWR0102" H 1900 4000 50  0001 C CNN
F 1 "+12V" H 1915 4323 50  0000 C CNN
F 2 "" H 1900 4150 50  0001 C CNN
F 3 "" H 1900 4150 50  0001 C CNN
	1    1900 4150
	1    0    0    -1  
$EndComp
Wire Wire Line
	1900 4150 1900 4350
Wire Wire Line
	1900 4350 2150 4350
Text Notes 1500 3850 0    50   ~ 0
Power for the SH-ESP32 board\n
Text Notes 3400 5050 0    50   ~ 0
Fuses + manual override\nATO fuse to power applicance direct or via PowerFET circuit
Text Notes 5900 4300 0    50   ~ 10
Appliance + SH-ESP32 board power
$Comp
L power:GND #PWR0103
U 1 1 619C6299
P 7800 2500
F 0 "#PWR0103" H 7800 2250 50  0001 C CNN
F 1 "GND" H 7805 2327 50  0000 C CNN
F 2 "" H 7800 2500 50  0001 C CNN
F 3 "" H 7800 2500 50  0001 C CNN
	1    7800 2500
	1    0    0    -1  
$EndComp
$Comp
L power:GND #PWR0105
U 1 1 619C69A4
P 7800 1600
F 0 "#PWR0105" H 7800 1350 50  0001 C CNN
F 1 "GND" H 7805 1427 50  0000 C CNN
F 2 "" H 7800 1600 50  0001 C CNN
F 3 "" H 7800 1600 50  0001 C CNN
	1    7800 1600
	1    0    0    -1  
$EndComp
$Comp
L power:GND #PWR0106
U 1 1 619C70FD
P 9500 1600
F 0 "#PWR0106" H 9500 1350 50  0001 C CNN
F 1 "GND" H 9505 1427 50  0000 C CNN
F 2 "" H 9500 1600 50  0001 C CNN
F 3 "" H 9500 1600 50  0001 C CNN
	1    9500 1600
	1    0    0    -1  
$EndComp
Wire Wire Line
	10300 1100 10800 1100
Wire Wire Line
	7800 1600 7950 1600
$Comp
L power:+3.3V #PWR0122
U 1 1 61893C02
P 9500 1100
F 0 "#PWR0122" H 9500 950 50  0001 C CNN
F 1 "+3.3V" H 9515 1273 50  0000 C CNN
F 2 "" H 9500 1100 50  0001 C CNN
F 3 "" H 9500 1100 50  0001 C CNN
	1    9500 1100
	1    0    0    -1  
$EndComp
Wire Wire Line
	9500 1600 9650 1600
Wire Wire Line
	7800 2500 7950 2500
$Comp
L power:+3.3V #PWR0124
U 1 1 618C5F9A
P 9500 2500
AR Path="/618C5F9A" Ref="#PWR0124"  Part="1" 
AR Path="/5FC3847D/618C5F9A" Ref="#PWR?"  Part="1" 
AR Path="/5FBE301B/618C5F9A" Ref="#PWR?"  Part="1" 
F 0 "#PWR0124" H 9500 2350 50  0001 C CNN
F 1 "+3.3V" H 9515 2673 50  0000 C CNN
F 2 "" H 9500 2500 50  0001 C CNN
F 3 "" H 9500 2500 50  0001 C CNN
	1    9500 2500
	1    0    0    -1  
$EndComp
$Comp
L power:+3.3V #PWR0135
U 1 1 618C9471
P 9500 3000
AR Path="/618C9471" Ref="#PWR0135"  Part="1" 
AR Path="/5FC3847D/618C9471" Ref="#PWR?"  Part="1" 
AR Path="/5FBE301B/618C9471" Ref="#PWR?"  Part="1" 
F 0 "#PWR0135" H 9500 2850 50  0001 C CNN
F 1 "+3.3V" H 9515 3173 50  0000 C CNN
F 2 "" H 9500 3000 50  0001 C CNN
F 3 "" H 9500 3000 50  0001 C CNN
	1    9500 3000
	1    0    0    -1  
$EndComp
Wire Wire Line
	7800 3050 7950 3050
Wire Wire Line
	9500 2500 9650 2500
Wire Wire Line
	9500 3000 9650 3000
$Comp
L Connector_Generic:Conn_01x04 J4
U 1 1 6188167D
P 5250 2150
F 0 "J4" H 5330 2142 50  0000 L CNN
F 1 "Conn_01x04" H 5330 2051 50  0000 L CNN
F 2 "Connector_PinSocket_2.54mm:PinSocket_1x04_P2.54mm_Vertical" H 5250 2150 50  0001 C CNN
F 3 "~" H 5250 2150 50  0001 C CNN
	1    5250 2150
	1    0    0    -1  
$EndComp
$Comp
L power:GND #PWR0136
U 1 1 61882332
P 4850 1900
F 0 "#PWR0136" H 4850 1650 50  0001 C CNN
F 1 "GND" H 4855 1727 50  0000 C CNN
F 2 "" H 4850 1900 50  0001 C CNN
F 3 "" H 4850 1900 50  0001 C CNN
	1    4850 1900
	1    0    0    -1  
$EndComp
$Comp
L power:+3.3V #PWR0138
U 1 1 61882D2C
P 4600 2000
F 0 "#PWR0138" H 4600 1850 50  0001 C CNN
F 1 "+3.3V" H 4615 2173 50  0000 C CNN
F 2 "" H 4600 2000 50  0001 C CNN
F 3 "" H 4600 2000 50  0001 C CNN
	1    4600 2000
	1    0    0    -1  
$EndComp
Wire Wire Line
	5050 2050 5000 2050
Wire Wire Line
	5000 2050 5000 1850
Wire Wire Line
	5000 1850 4850 1850
Wire Wire Line
	4850 1850 4850 1900
Wire Wire Line
	5050 2150 4600 2150
Wire Wire Line
	4600 2150 4600 2000
Wire Wire Line
	5050 2250 4550 2250
Wire Wire Line
	5050 2350 4550 2350
Text Label 4550 2250 0    50   ~ 0
SCL
Text Label 4550 2350 0    50   ~ 0
SDA
$EndSCHEMATC
